<?xml version="1.0" encoding="UTF-8"?>
<!DOCTYPE svg PUBLIC "-//W3C//DTD SVG 1.1//EN" "http://www.w3.org/Graphics/SVG/1.1/DTD/svg11.dtd">
<!-- Creator: CorelDRAW 2019 (64-Bit) -->
<svg xmlns="http://www.w3.org/2000/svg" xml:space="preserve" width="11.6929in" height="8.26772in" version="1.1" style="shape-rendering:geometricPrecision; text-rendering:geometricPrecision; image-rendering:optimizeQuality; fill-rule:evenodd; clip-rule:evenodd"
viewBox="0 0 11692.91 8267.72"
 xmlns:xlink="http://www.w3.org/1999/xlink">
 <defs>
  <font id="FontID1" horiz-adv-x="722" font-variant="normal" style="fill-rule:nonzero" font-style="normal" font-weight="700">
	<font-face 
		font-family="Arial">
		<font-face-src>
			<font-face-name name="Arial Bold"/>
		</font-face-src>
	</font-face>
   <missing-glyph><path d="M0 0z"/></missing-glyph>
   <glyph unicode="-" horiz-adv-x="333" d="M56.0124 191.025l0 136.955 269.96 0 0 -136.955 -269.96 0z"/>
   <glyph unicode="1" horiz-adv-x="556" d="M392.994 0l-137.02 0 0 518.358c-49.9903,-47.0116 -108.981,-81.8494 -176.973,-104.384l0 125.04c35.8091,11.6558 74.6617,33.8017 116.493,66.6321 42.0255,32.7009 70.6469,70.8412 86.3174,114.356l111.183 0 0 -720.003z"/>
   <glyph unicode="9" horiz-adv-x="556" d="M47.0116 166.354l133.005 14.6345c3.17296,-27.132 11.6558,-47.3354 25.1247,-60.351 13.5336,-13.1451 31.5353,-19.6205 53.6813,-19.6205 28.1681,0 51.9977,13.1451 71.683,39.3058 19.6853,26.1607 32.1829,80.4895 37.687,162.663 -34.514,-39.9534 -77.5108,-59.9624 -129.379,-59.9624 -56.1419,0 -104.837,21.6279 -145.632,65.1428 -40.8599,43.5149 -61.1928,99.9806 -61.1928,169.656 0,72.6543 21.4984,131.192 64.6895,175.484 43.1263,44.5509 98.1675,66.6969 164.8,66.6969 72.5248,0 132.163,-28.1681 178.657,-84.31 46.5583,-56.3362 69.8698,-148.87 69.8698,-277.861 0,-130.998 -24.1533,-225.669 -72.5248,-283.688 -48.3067,-58.1493 -111.313,-87.1592 -188.953,-87.1592 -55.8829,0 -100.887,15.023 -135.336,45.0042 -34.3845,29.8517 -56.5305,74.6617 -66.1789,134.365zm309.007 300.33c0,44.1624 -10.1664,78.4822 -30.4993,102.83 -20.2033,24.3476 -43.7091,36.4566 -70.3231,36.4566 -25.3837,0 -46.364,-9.97216 -63.0059,-29.9812 -16.8361,-20.0091 -25.1894,-52.6452 -25.1894,-97.9732 0,-46.1698 9.1951,-80.0363 27.3263,-101.664 18.1959,-21.4984 40.8599,-32.3771 68.1862,-32.3771 26.2902,0 48.5009,10.3607 66.5026,31.2116 18.0017,20.7861 27.0025,51.2854 27.0025,91.4978z"/>
   <glyph unicode="A" horiz-adv-x="722" d="M717.995 0l-156.187 0 -61.8403 162.986 -287.12 0 -59.5092 -162.986 -153.338 0 277.99 715.988 153.209 0 286.797 -715.988zm-264.974 284.012l-99.5273 264.974 -96.6781 -264.974 196.205 0z"/>
   <glyph unicode="C" horiz-adv-x="722" d="M530.985 264.003l139.999 -42.9968c-21.4984,-78.8707 -57.3075,-137.344 -107.298,-175.678 -49.9903,-38.1403 -113.385,-57.3075 -190.183,-57.3075 -95.1888,0 -173.347,32.5066 -234.669,97.4552 -61.1928,65.0133 -91.8215,153.856 -91.8215,266.723 0,119.148 30.823,211.811 92.3396,277.796 61.4518,65.9846 142.459,99.0093 242.828,99.0093 87.6773,0 158.842,-26.0312 213.495,-77.8346 32.6361,-30.6935 56.9837,-74.6617 73.3018,-132.163l-142.977 -33.996c-8.48281,36.9747 -26.1607,66.3084 -52.969,87.8068 -27.0025,21.4984 -59.7034,32.1829 -98.0379,32.1829 -53.1632,0 -96.3543,-18.973 -129.314,-57.178 -33.1542,-38.0107 -49.6665,-99.6568 -49.6665,-185.003 0,-90.3322 16.3181,-154.827 48.8247,-193.162 32.6361,-38.464 74.9854,-57.6313 127.177,-57.6313 38.464,0 71.683,12.1738 99.333,36.6509 27.6501,24.4771 47.6591,62.8116 59.6387,115.327z"/>
   <glyph unicode="D" horiz-adv-x="722" d="M72.978 715.988l263.679 0c59.5092,0 104.837,-4.46804 135.984,-13.6631 41.8313,-12.3033 77.8346,-34.3198 107.686,-65.9846 29.9812,-31.5353 52.6452,-70.1936 68.3157,-115.975 15.541,-45.7165 23.3763,-102.182 23.3763,-169.203 0,-58.9911 -7.38199,-109.694 -22.0164,-152.302 -17.8074,-52.1919 -43.3206,-94.347 -76.4748,-126.53 -25.0599,-24.4771 -58.8616,-43.5149 -101.34,-57.178 -31.8591,-10.1664 -74.3379,-15.1525 -127.695,-15.1525l-271.515 0 0 715.988zm145.05 -120.961l0 -474.001 107.492 0c40.1476,0 69.1575,2.33115 86.965,6.7992 23.5058,5.82788 42.8673,15.8648 58.2141,29.8517 15.4763,13.9869 27.9738,36.9747 37.6222,68.9633 9.84265,32.0534 14.6992,75.892 14.6992,131.192 0,55.3649 -4.85657,97.6494 -14.6992,127.307 -9.64838,29.7222 -23.3115,52.71 -40.7952,69.3518 -17.5484,16.5123 -39.6944,27.8443 -66.6969,33.6722 -20.0091,4.5328 -59.5092,6.86395 -118.177,6.86395l-64.6247 0z"/>
   <glyph unicode="G" horiz-adv-x="777" d="M406.009 263.032l0 120.961 311.015 0 0 -285.631c-30.1755,-29.5279 -74.0141,-55.3649 -131.516,-77.8346 -57.3723,-22.3402 -115.522,-33.5427 -174.513,-33.5427 -74.8559,0 -139.999,15.6705 -195.687,47.2059 -55.4944,31.4706 -97.3256,76.669 -125.299,135.142 -28.0386,58.4731 -42.0255,122.321 -42.0255,191.155 0,74.6617 15.6705,141.035 46.8821,199.184 31.2763,58.0198 76.9928,102.635 137.15,133.653 45.9755,23.8296 102.959,35.6796 171.34,35.6796 88.8428,0 158.324,-18.6492 208.314,-56.0124 49.8608,-37.4927 81.9789,-88.9723 96.3543,-155.022l-144.013 -26.9378c-10.0369,35.1616 -29.0099,62.9411 -56.8542,83.4682 -27.6501,20.3328 -62.2936,30.4993 -103.995,30.4993 -63.0059,0 -113.19,-20.0091 -150.295,-60.1567 -37.1689,-40.1476 -55.8829,-99.6568 -55.8829,-178.527 0,-85.1518 18.8435,-149 56.5305,-191.478 37.8165,-42.4788 87.1592,-63.8477 148.352,-63.8477 30.1107,0 60.4805,6.02215 90.7855,17.8722 30.4993,11.7853 56.5305,26.2902 78.3527,43.3206l0 90.8502 -164.994 0z"/>
   <glyph unicode="I" horiz-adv-x="277" d="M67.992 0l0 715.988 144.985 0 0 -715.988 -144.985 0z"/>
   <glyph unicode="K" horiz-adv-x="722" d="M75.0051 0l0 715.996 145.003 0 0 -317.169 292.167 317.169 194.321 0 -270.149 -278.826 284.142 -437.17 -186.981 0 -196.996 336.168 -116.503 -119.658 0 -216.51 -145.003 0z"/>
   <glyph unicode="M" horiz-adv-x="833" d="M70.9925 0l0 715.996 217.162 0 128.335 -488.339 126.861 488.339 217.642 0 0 -715.996 -133.994 0 -0.514439 563.653 -141.162 -563.653 -139.31 0 -140.51 563.653 -0.514439 -563.653 -133.994 0z"/>
   <glyph unicode="N" horiz-adv-x="722" d="M72.978 0l0 715.988 140.387 0 294.632 -479.829 0 479.829 133.977 0 0 -715.988 -144.791 0 -290.164 470.699 0 -470.699 -134.041 0z"/>
   <glyph unicode="O" horiz-adv-x="777" d="M42.9968 353.688c0,72.978 11.0082,134.3 32.8304,183.967 16.1886,36.5214 38.5288,69.3518 66.6969,98.3617 28.1681,29.0099 58.9911,50.5083 92.4691,64.6247 44.6804,18.8435 96.1601,28.3624 154.504,28.3624 105.679,0 189.989,-32.8304 253.513,-98.3617 63.3297,-65.6608 94.9945,-156.835 94.9945,-273.651 0,-115.845 -31.5353,-206.501 -94.347,-271.838 -62.8116,-65.4666 -146.992,-98.1675 -252.153,-98.1675 -106.521,0 -191.349,32.5066 -254.16,97.7142 -62.8116,64.9485 -94.347,154.633 -94.347,268.989zm149 4.79182c0,-81.1371 18.8435,-142.654 56.3362,-184.614 37.4927,-41.896 85.1518,-62.8764 142.848,-62.8764 57.8256,0 105.161,20.8509 142.33,62.3584 36.9747,41.637 55.4944,103.995 55.4944,187.14 0,82.1732 -18.0017,143.495 -54.1993,183.837 -36.0034,40.5362 -83.792,60.6747 -143.625,60.6747 -59.7034,0 -107.816,-20.5271 -144.337,-61.3223 -36.5214,-40.9894 -54.8469,-102.7 -54.8469,-185.197z"/>
   <glyph unicode="P" horiz-adv-x="666" d="M72.978 0l0 715.988 231.885 0c87.8068,0 144.985,-3.49673 171.664,-10.6845 40.9894,-10.814 75.3092,-34.1255 102.959,-70.1289 27.6501,-36.0034 41.5075,-82.4969 41.5075,-139.481 0,-44.0329 -7.96477,-80.8781 -23.8296,-110.859 -15.9943,-29.9812 -36.1329,-53.487 -60.6747,-70.6469 -24.4771,-17.0304 -49.4723,-28.3624 -74.7912,-33.8665 -34.514,-6.7992 -84.3748,-10.2959 -149.712,-10.2959l-93.9584 0 0 -270.025 -145.05 0zm145.05 595.027l0 -204.041 78.8059 0c56.8542,0 94.6707,3.8205 113.838,11.332 19.1673,7.51149 34.1902,19.1673 45.0042,35.3558 10.814,15.9943 16.3181,34.514 16.3181,55.8182 0,26.1607 -7.641,47.6591 -22.8583,64.6895 -15.282,16.9656 -34.4493,27.6501 -57.9551,31.9886 -17.1599,3.17296 -51.6739,4.85657 -103.672,4.85657l-69.4813 0z"/>
   <glyph unicode="R" horiz-adv-x="722" d="M73.016 0l0 715.996 304.479 0c76.5142,0 132.176,-6.48193 166.85,-19.3429 34.8103,-12.8267 62.4871,-35.6677 83.339,-68.4889 20.8176,-32.9927 31.3122,-70.5124 31.3122,-112.834 0,-53.8446 -15.6732,-98.1549 -47.1569,-133.171 -31.5179,-34.9818 -78.5033,-56.9998 -141.162,-66.1568 31.1407,-18.1768 56.8283,-38.1713 76.9943,-60.0178 20.3375,-21.8122 47.6713,-60.6352 82.0015,-116.332l87.3174 -139.653 -172.817 0 -103.677 156.321c-37.1768,55.5251 -62.6586,90.5069 -76.4799,105.014 -13.6841,14.3357 -28.1912,24.3158 -43.5215,29.666 -15.5017,5.31587 -39.8175,7.99095 -73.1532,7.99095l-29.3573 0 0 -298.992 -144.969 0zm144.969 412.991l107.003 0c69.3463,0 112.525,3.01804 129.844,8.84834 17.1822,5.8303 30.832,15.9819 40.5035,30.3176 9.84292,14.3357 14.6786,32.341 14.6786,53.8446 0,24.1786 -6.51622,43.4872 -19.3429,58.5088 -12.8267,14.8158 -31.0035,24.1443 -54.3247,27.9855 -11.8321,1.6805 -47.0197,2.5036 -105.528,2.5036l-112.834 0 0 -182.008z"/>
   <glyph unicode="T" horiz-adv-x="610" d="M234.022 0l0 595.027 -212.005 0 0 120.961 567.96 0 0 -120.961 -210.969 0 0 -595.027 -144.985 0z"/>
   <glyph unicode="U" horiz-adv-x="722" d="M73.016 715.996l144.969 0 0 -387.99c0,-61.664 1.85198,-101.516 5.35016,-119.658 6.17326,-29.3573 20.6804,-53.0215 43.6587,-70.6839 23.184,-17.8339 54.6677,-26.6479 94.6567,-26.6479 40.5035,0 71.1983,8.3339 91.8444,25.1389 20.6804,16.8393 32.9927,37.3482 37.1768,61.8355 4.1498,24.5216 6.34474,65.025 6.34474,121.682l0 396.323 144.969 0 0 -376.5c0,-85.9798 -3.80685,-146.821 -11.6606,-182.317 -7.81947,-35.4963 -22.1552,-65.5052 -43.1442,-90.0268 -20.8519,-24.4873 -48.8374,-43.8302 -83.8535,-58.303 -35.1533,-14.5072 -80.8354,-21.8465 -137.321,-21.8465 -68.1803,0 -119.83,7.81947 -155.017,23.6642 -35.1533,15.8447 -63.0016,36.3194 -83.4762,61.664 -20.509,25.3447 -33.8501,51.6839 -40.332,79.4979 -9.49997,41.0179 -14.1642,101.687 -14.1642,181.837l0 382.331z"/>
   <glyph unicode="V" horiz-adv-x="666" d="M256.168 0l-256.168 715.988 156.641 0 181.83 -530.014 174.513 530.014 153.986 0 -254.614 -715.988 -156.187 0z"/>
  </font>
  <font id="FontID0" horiz-adv-x="656" font-variant="normal" style="fill-rule:nonzero" font-weight="700">
	<font-face 
		font-family="Myriad Pro">
		<font-face-src>
			<font-face-name name="MyriadPro-Bold"/>
		</font-face-src>
	</font-face>
   <missing-glyph><path d="M0 0z"/></missing-glyph>
   <glyph unicode="#" horiz-adv-x="550" d="M223.002 271l16.0027 111.999 90.9942 0 -16.0027 -111.999 -90.9942 0zm-41.0032 -271l25.0005 178.999 91.0042 0 -25.0005 -178.999 89.9978 0 25.0005 178.999 97.9992 0 0 92.0006 -83.0028 0 16.0027 111.999 94.0035 0 0 92.9971 -80.0036 0 25.9969 174.007 -89.0014 0 -25.9969 -174.007 -90.9942 0 25.0005 174.007 -89.0014 0 -25.0005 -174.007 -99.0056 0 0 -92.9971 85.0057 0 -16.0027 -111.999 -97.0027 0 0 -92.0006 81 0 -25.9969 -178.999 89.9978 0z"/>
   <glyph unicode="D" horiz-adv-x="695" d="M66.0037 2.99926c37.994,-5.00209 93.9935,-10.0042 173.001,-10.0042 131.997,0 239.991,28.0097 310.997,87.0085 64.9973,54.9931 111.999,143.994 111.999,272.993 0,119.004 -44.0025,202.007 -114.002,254.001 -64.9973,49.0046 -148,72.0022 -276.002,72.0022 -76.9944,0 -149.993,-5.00209 -205.993,-13.9999l0 -662zm152.992 553c13.0034,2.99926 35.0047,5.99853 69.003,5.99853 131.001,0 212.997,-73.9951 212.001,-213.994 0,-161.004 -89.9978,-237.002 -228.004,-236.005 -18.992,0 -39.9968,0 -53.0003,2.99926l0 441.001z"/>
   <glyph unicode="L" horiz-adv-x="511" d="M66.0037 0l420.993 0 0 128.002 -268.001 0 0 545.995 -152.992 0 0 -673.997z"/>
   <glyph unicode="S" horiz-adv-x="539" d="M39.9968 30.999c38.0039,-20.9948 114.002,-41.0032 191.006,-41.0032 184.998,0 271.996,96.0063 271.996,209.002 0,94.9999 -55.9995,156.998 -175.003,201 -86.9985,33.0019 -124.993,52.0038 -124.993,94.9999 0,35.0047 31.9955,64.9973 97.9992,64.9973 65.9937,0 114.002,-18.992 140.995,-31.9955l33.9983 123c-39.9968,18.0055 -95.9963,33.9983 -171.994,33.9983 -159.001,0 -254.997,-87.995 -254.997,-202.993 0,-98.0091 72.9987,-160.007 184.998,-199.008 81,-28.9962 112.995,-53.0003 112.995,-94.9999 0,-43.9925 -36.9975,-72.9987 -106.997,-72.9987 -64.9973,0 -128.002,21.0048 -169.005,41.9996l-30.999 -125.999z"/>
   <glyph unicode="a" horiz-adv-x="527" d="M475.996 0c-4.99213,27.0033 -6.99496,72.0022 -6.99496,119.004l0 169.991c0,115.008 -52.0038,211.005 -215,211.005 -89.0014,0 -156.002,-24.0041 -190,-42.9961l27.9998 -97.9992c31.9955,19.9984 84.9957,36.9975 134.997,36.9975 75.0015,0 89.0014,-36.9975 89.0014,-63.0044l0 -6.99496c-173.001,0.996433 -287.003,-60.0052 -287.003,-187.001 0,-78.0008 59.0087,-150.003 158.004,-150.003 58.0024,0 108.003,21.0048 139.999,60.0052l2.99926 0 8.99779 -49.0046 137 0zm-154.995 178.003c0,-8.99779 -0.996433,-18.0055 -2.99926,-26.0069 -10.0042,-30.999 -41.0032,-55.9995 -78.9972,-55.9995 -34.0083,0 -60.0052,19.002 -60.0052,58.0024 0,58.9988 61.998,78.0008 142.002,77.0043l0 -53.0003z"/>
   <glyph unicode="d" horiz-adv-x="595" d="M382.999 709.998l0 -265.001 -2.00283 0c-21.9913,33.9983 -68.993,55.0031 -128.998,55.0031 -117.001,0 -220.002,-94.9999 -218.996,-259.999 0,-151.996 92.9971,-251.001 209.002,-251.001 62.9945,0 121.993,27.9998 152.992,83.0028l2.00283 0 7.00492 -72.0022 134.997 0c-2.00283,33.0019 -3.9957,91.0042 -3.9957,145.997l0 564.001 -152.006 0zm0 -491.999c0,-13.0034 -0.996433,-24.0041 -3.9957,-34.9947 -9.00775,-43.006 -44.0025,-73.0086 -88.0049,-73.0086 -62.9945,0 -103.998,52.0038 -103.998,135.007 0,76.9944 36.0011,138.992 105.004,138.992 46.9918,0 79.9936,-33.9983 88.9914,-74.9915 1.0064,-8.00136 2.00283,-19.002 2.00283,-27.0033l0 -64.0009z"/>
   <glyph unicode="e" horiz-adv-x="527" d="M492.995 195.998c2.00283,11.0006 5.00209,33.9983 5.00209,60.0052 0,120.997 -59.9952,243.996 -218,243.996 -170.001,0 -246.996,-137 -246.996,-260.996 0,-153.002 94.9999,-249.009 260.996,-249.009 66.0037,0 127.005,10.0042 177.006,30.0026l-20.0084 103.001c-40.9932,-13.0034 -82.9929,-19.9984 -134.997,-19.9984 -70.9958,0 -132.994,30.0026 -137.996,92.9971l314.992 0zm-315.999 103.998c4.00566,41.0032 30.0026,99.0056 94.0035,99.0056 69.9994,0 86.0021,-61.998 86.0021,-99.0056l-180.006 0z"/>
   <glyph unicode="g" horiz-adv-x="584" d="M396.002 488.999l-5.00209 -58.0024 -2.00283 0c-25.0005,40.0068 -67.0001,69.003 -134,69.003 -120,0 -221.995,-100.002 -221.995,-257 0,-140.995 86.0021,-239.004 206.999,-239.004 55.9995,0 103.001,23.0076 131.997,64.0009l2.00283 0 0 -31.9955c0,-89.9978 -55.0031,-128.998 -127.005,-128.998 -56.996,0 -110.993,19.002 -141.992,36.9975l-30.0026 -114.998c44.0025,-25.0005 111.999,-38.0039 176,-38.0039 72.0022,0 145.001,13.9999 198.998,60.0052 55.0031,48.9946 74.0051,125.999 74.0051,219.992l0 273.003c0,72.9987 1.99287,114.002 3.9957,145.001l-131.997 0zm-24.0041 -271c0,-13.0034 -0.996433,-28.9962 -5.00209,-39.9968 -9.99422,-36.0011 -40.9932,-61.998 -79.9936,-61.998 -64.0009,0 -100.002,56.996 -100.002,129.995 0,89.0014 44.9989,139.002 100.002,139.002 41.9996,0 70.9958,-27.0033 81.9965,-67.0001 2.00283,-8.00136 2.99926,-18.0055 2.99926,-27.9998l0 -72.0022z"/>
   <glyph unicode="i" horiz-adv-x="273" d="M212.997 0l0 488.999 -151.996 0 0 -488.999 151.996 0zm-75.9979 701.997c-48.9946,0 -81,-32.9919 -80.0036,-76.9944 -0.996433,-41.9996 31.009,-75.9979 79.0072,-75.9979 50.001,0 81.9965,33.9983 81.9965,75.9979 -0.996433,44.0025 -31.9955,76.9944 -81,76.9944z"/>
   <glyph unicode="m" horiz-adv-x="860" d="M61.0016 0l148 0 0 285c0,11.9971 0.996433,25.9969 5.99853,38.0039 8.99779,25.0005 31.9955,54.9931 70.9958,54.9931 48.0081,0 69.9994,-41.9996 69.9994,-103.998l0 -273.999 148 0 0 285.996c0,12.007 2.00283,27.9998 6.00849,39.0004 9.99422,29.0062 34.9947,53.0003 69.9994,53.0003 48.9946,0 71.9923,-40.9932 71.9923,-111.999l0 -265.998 148 0 0 287.999c0,145.997 -70.9958,212.001 -164.999,212.001 -36.0011,0 -65.9937,-8.00136 -92.9971,-24.0041 -22.9977,-13.9999 -44.9989,-33.9983 -63.0044,-58.9988l-1.99287 0c-21.0048,51.0074 -71.0058,83.0028 -134,83.0028 -83.9993,0 -127.005,-45.9953 -148,-77.0043l-2.99926 0 -7.00492 66.0037 -128.002 0c2.00283,-42.9961 4.00566,-94.9999 4.00566,-156.002l0 -332.998z"/>
   <glyph unicode="n" horiz-adv-x="586" d="M61.0016 0l151.996 0 0 282c0,13.9999 2.00283,28.9962 5.99853,38.0039 10.0042,27.9998 35.0047,56.996 77.0043,56.996 55.0031,0 77.0043,-42.9961 77.0043,-106.001l0 -271 151.996 0 0 290.002c0,143.994 -75.0015,209.998 -175.003,209.998 -81,0 -131.001,-47.0017 -150.999,-78.0008l-2.99926 0 -6.99496 67.0001 -132.007 0c2.00283,-42.9961 4.00566,-94.9999 4.00566,-156.002l0 -332.998z"/>
   <glyph unicode="r" horiz-adv-x="379" d="M61.0016 0l151.996 0 0 248.002c0,11.9971 1.0064,23.9941 2.99926,33.9983 10.0042,47.0017 48.0081,77.0043 104.008,77.0043 16.9991,0 29.9926,-2.00283 40.9932,-4.00566l0 142.998c-11.0006,2.00283 -17.9956,2.00283 -31.9955,2.00283 -47.0017,0 -107.007,-30.0026 -131.997,-100.998l-4.00566 0 -5.00209 89.9978 -131.001 0c2.00283,-41.9996 4.00566,-89.0014 4.00566,-161.004l0 -327.996z"/>
   <glyph unicode="s" horiz-adv-x="433" d="M33.0019 24.0041c36.9975,-20.0084 93.9935,-34.0083 157.994,-34.0083 139.999,0 212.001,67.0001 212.001,158.004 -0.996433,72.0022 -39.9968,119.004 -132.994,150.999 -60.0052,21.0048 -79.0072,33.0019 -79.0072,55.9995 0,25.0005 21.0048,39.9968 58.0024,39.9968 41.9996,0 83.9993,-15.9927 106.001,-27.9998l27.0033 105.004c-30.0026,14.9963 -81,27.9998 -138.006,27.9998 -120.997,0 -198.998,-69.003 -198.998,-159.997 -0.996433,-58.0024 38.0039,-113.005 139.002,-147.004 56.996,-19.002 72.0022,-30.999 72.0022,-55.9995 0,-25.0005 -19.002,-41.0032 -65.0073,-41.0032 -44.9989,0 -102.991,20.0084 -131.001,37.0075l-26.9934 -109z"/>
   <glyph unicode="u" horiz-adv-x="583" d="M522.001 488.999l-153.002 0 0 -290.998c0,-11.9971 -0.996433,-24.0041 -5.00209,-33.0019 -9.99422,-24.0041 -33.9983,-53.0003 -75.9979,-53.0003 -53.0003,0 -75.9979,42.9961 -75.9979,114.002l0 262.998 -153.002 0 0 -287.003c0,-150.999 72.9987,-212.997 172.004,-212.997 87.995,0 134,50.001 152.992,80.0036l3.00923 0 6.99496 -69.003 131.997 0c-1.99287,41.0032 -3.9957,92.9971 -3.9957,156.998l0 332.001z"/>
  </font>
  <style type="text/css">
   <![CDATA[
    @font-face { font-family:"Arial";font-variant:normal;font-style:normal;font-weight:bold;src:url("#FontID1") format(svg)}
    @font-face { font-family:"Myriad Pro";font-variant:normal;font-weight:bold;src:url("#FontID0") format(svg)}
    .str0 {stroke:#EF8D85;stroke-width:11.19;stroke-linecap:round;stroke-linejoin:round;stroke-miterlimit:2.6131}
    .fil15 {fill:none}
    .fil13 {fill:#FEFEFE}
    .fil4 {fill:#FED9AA}
    .fil14 {fill:#FBCDC1}
    .fil28 {fill:#FBCCC1}
    .fil23 {fill:#F8B4A9}
    .fil9 {fill:#F9B29F}
    .fil24 {fill:#F8B0A4}
    .fil19 {fill:#F58E89}
    .fil26 {fill:#F58E82}
    .fil12 {fill:#F37F75}
    .fil30 {fill:#F27E9C}
    .fil25 {fill:#F05B55}
    .fil5 {fill:#F5B6A4}
    .fil8 {fill:#F7B262}
    .fil6 {fill:#EF8D85}
    .fil11 {fill:#E98B7E}
    .fil21 {fill:#B4D5F0}
    .fil18 {fill:#666A93}
    .fil29 {fill:#4B4674}
    .fil2 {fill:#423F6E}
    .fil32 {fill:black}
    .fil16 {fill:black}
    .fil0 {fill:#000066}
    .fil33 {fill:#006633}
    .fil10 {fill:#009D61}
    .fil3 {fill:#1A1A1A}
    .fil1 {fill:#44279E}
    .fil7 {fill:#59A14F}
    .fil17 {fill:#FFCC00}
    .fil31 {fill:#FEFEFE;fill-rule:nonzero}
    .fil22 {fill:#F8B4A9;fill-rule:nonzero}
    .fil20 {fill:#F58E89;fill-rule:nonzero}
    .fil27 {fill:#4B4674;fill-rule:nonzero}
    .fnt1 {font-weight:bold;font-size:60.8px;font-family:'Arial'}
    .fnt2 {font-weight:bold;font-size:114.8px;font-family:'Arial'}
    .fnt0 {font-weight:bold;font-size:395.11px;font-family:'Myriad Pro'}
   ]]>
  </style>
 </defs>
 <g id="Layer_x0020_1">
  <metadata id="CorelCorpID_0Corel-Layer"/>
  <g id="_2452665825360">
   <g>
    <path class="fil0" d="M7236.41 2735.87c-343,-343 -816.87,-555.15 -1340.25,-555.15 -523.41,0 -997.24,212.15 -1340.23,555.15 -343,342.98 -555.16,816.84 -555.16,1340.24 0,523.38 212.16,997.23 555.16,1340.24 342.99,342.99 816.83,555.14 1340.23,555.14 523.38,0 997.25,-212.15 1340.25,-555.14 342.97,-343 555.14,-816.85 555.14,-1340.24 0,-523.41 -212.17,-997.26 -555.14,-1340.24zm-1340.25 -596.46c534.8,0 1018.96,216.79 1369.46,567.24 350.44,350.47 567.23,834.65 567.23,1369.46 0,534.78 -216.79,1018.96 -567.23,1369.43 -350.5,350.47 -834.67,567.24 -1369.46,567.24 -534.81,0 -1018.99,-216.76 -1369.44,-567.24 -350.47,-350.47 -567.25,-834.65 -567.25,-1369.43 0,-534.81 216.78,-1018.99 567.25,-1369.46 350.45,-350.46 834.63,-567.24 1369.44,-567.24l0 0z"/>
    <path class="fil1" d="M5896.16 5879.22c993.12,0 1803.12,-809.99 1803.12,-1803.11 0,-993.14 -810,-1803.14 -1803.12,-1803.14 -993.13,0 -1803.13,810 -1803.13,1803.14 0,993.12 810,1803.11 1803.13,1803.11z"/>
    <path class="fil2" d="M6461.04 2825.81c-2.5,-4.7 -0.74,-10.52 3.95,-13.02 4.71,-2.51 10.54,-0.73 13.05,3.96 0.54,1 186.87,349.1 205.56,434.28 10.09,45.91 11.8,92.56 1.34,134 -9.39,37.2 -28.55,70.16 -60.13,94.61 -4.22,3.26 -10.28,2.49 -13.54,-1.72 -3.24,-4.22 -2.46,-10.29 1.75,-13.52 27.86,-21.57 44.82,-50.88 53.2,-84.06 9.68,-38.39 8,-82.03 -1.49,-125.24 -18.13,-82.63 -203.17,-428.3 -203.69,-429.29z"/>
    <path class="fil2" d="M5189.6 2287.08c2.88,-4.47 8.85,-5.78 13.34,-2.91 4.47,2.88 5.78,8.85 2.89,13.34 -0.46,0.75 -170.96,258.42 144.85,486.27 4.33,3.12 5.3,9.13 2.19,13.44 -3.1,4.33 -9.13,5.3 -13.44,2.2 -330.8,-238.69 -150.33,-511.56 -149.83,-512.34z"/>
    <path class="fil3" d="M5365.18 2768.22c0,0 -174.8,-144.26 -213.48,-267.54 -38.67,-123.29 -19.33,-232.05 82.2,-355.34 101.5,-123.28 413.33,-401.26 500.36,-442.36 87.02,-41.08 263.56,23.27 379.53,128.88 0,0 146.2,-32.18 201.81,-8.01 55.57,24.18 180.92,196.39 287.91,541.36 106.99,344.97 -152.07,499.37 -335.13,612.28l-654.47 -39.07 -248.74 -170.21z"/>
    <path class="fil3" d="M5353.44 2577.04l-87.52 32.7c0,0 12.13,337.9 -76.82,570.54 -88.93,232.65 -18.19,429.28 125.31,382.21 0,0 8.39,141.72 127.34,174.47 118.96,32.77 266.81,58.17 266.81,58.17l400.21 22.15c0,0 380.04,105.24 408.32,-340.65 0,0 129.35,-5.54 131.38,-160.63 2.03,-155.1 -175.84,-407.13 -175.84,-728.4 0,-321.27 -1119.2,-10.56 -1119.2,-10.56z"/>
    <path class="fil4" d="M6351.07 2927.5c0,0 -34.02,-45.48 -107.2,-76.32 -73.22,-30.82 -60.77,82.12 -37.78,92.48 23.01,10.35 125.63,40.83 144.98,-16.17z"/>
    <path class="fil5" d="M5173.67 3415.12c-77.58,22.16 -130.67,125.22 -161.37,275.28 -31.13,152.28 -239.61,913.52 -219.89,1020.59 -7.43,-60.83 458.73,-454.32 524.19,-518.09 0,0 -34.8,-480.38 -48.43,-586.11 -13.64,-105.72 -54.56,-187.57 -94.48,-191.68z"/>
    <path class="fil6" d="M4997.75 4480.29c131.34,-122.43 283.49,-252.95 318.84,-287.39 0,0 -34.8,-480.38 -48.43,-586.11 -2.16,-16.7 -5,-32.81 -8.41,-48.11l-62.78 -60.41 -41.8 502.46 24.25 62.69 -45.98 69.91 -135.79 347.02 0.11 -0.07z"/>
    <path class="fil7" d="M5179.75 3408.39c0,0 -65.37,11.27 -97.35,58.59 -31.96,47.33 -153.48,456.58 -153.48,456.58 0,0 -6.39,20.47 2.57,35.81 8.94,15.35 239.16,150.93 239.16,150.93l130.46 -323.59c0,0 -7.67,-360.67 -121.35,-378.32z"/>
    <path class="fil8" d="M4937.51 3901.64c-5.37,13.64 -8.59,21.92 -8.59,21.92 0,0 -0.69,2.26 -1.31,5.83l259.73 157.48 16.81 -23.57 -266.64 -161.66z"/>
    <path class="fil5" d="M6618.65 3415.12c77.58,22.16 130.67,125.22 161.39,275.28 31.12,152.28 239.59,913.52 219.87,1020.59 7.47,-60.83 -458.72,-454.32 -524.17,-518.09 0,0 34.77,-480.38 48.43,-586.11 13.64,-105.72 54.56,-187.57 94.48,-191.68z"/>
    <path class="fil6" d="M6794.57 4480.29c-131.34,-122.43 -283.5,-252.95 -318.84,-287.39 0,0 34.77,-480.38 48.43,-586.11 2.16,-16.7 5.01,-32.81 8.39,-48.11l62.8 -60.41 41.78 502.46 -24.24 62.69 46 69.91 135.79 347.02 -0.12 -0.07z"/>
    <path class="fil7" d="M6612.44 3408.39c0,0 65.37,11.27 97.38,58.59 31.95,47.33 153.48,456.58 153.48,456.58 0,0 6.38,20.47 -2.56,35.81 -8.96,15.35 -239.18,150.93 -239.18,150.93l-130.46 -323.59c0,0 7.69,-360.67 121.35,-378.32z"/>
    <path class="fil8" d="M6854.7 3901.64c5.38,13.64 8.6,21.92 8.6,21.92 0,0 0.69,2.26 1.3,5.83l-259.72 157.48 -16.81 -23.57 266.63 -161.66z"/>
    <path class="fil9" d="M5893.24 2690.74l0 0c114.89,0 208.86,93.98 208.86,208.89l0 399.85c0,114.87 -93.97,208.86 -208.86,208.86l0 0c-114.87,0 -208.87,-93.98 -208.87,-208.86l0 -399.85c0,-114.91 94,-208.89 208.87,-208.89z"/>
    <path class="fil7" d="M6138.44 3315.45c0,0 -88.22,126.54 -242.35,126.54 -154.09,0 -242.35,-126.54 -242.35,-126.54 -16.51,-18.56 -49.02,-7.09 -116.54,17.11 -67.54,24.22 -207.08,45.25 -357.45,75.83l0 0c-0.15,0.08 -4.5,2.53 -6.19,6.72 0,0 13.22,1.7 18.74,14.49 5.55,12.79 12.4,361.07 14.1,422.46 1.71,61.39 -127.87,199.5 -46.02,451.89 15.13,46.63 28.26,86.54 39.7,120.91 0,0 79.87,308.71 93.51,472.43 13.64,163.71 -27.49,315.06 -64.68,498.06 -19.21,94.51 -54.63,220.43 -84.41,320.13 228.78,105.09 483.34,163.74 751.58,163.75l0.07 0c268.25,0 522.75,-58.64 751.54,-163.69 -29.76,-99.72 -65.19,-225.67 -84.41,-320.19 -37.2,-183 -78.32,-334.35 -64.69,-498.06 13.67,-163.71 93.51,-472.43 93.51,-472.43 11.46,-34.37 24.57,-74.28 39.71,-120.91 81.85,-252.38 -47.72,-390.5 -46.01,-451.89 1.67,-61.39 8.52,-409.68 14.05,-422.46 5.55,-12.8 18.78,-14.49 18.78,-14.49 -1.67,-4.2 -6.02,-6.65 -6.21,-6.72l0 0c-150.35,-30.58 -289.89,-51.61 -357.43,-75.83 -67.53,-24.2 -100.04,-35.67 -116.57,-17.11z"/>
    <path class="fil10" d="M5493.55 3345.55c-21.19,5.43 -45.64,10.8 -72.57,16.28l-1.54 65.83 37.54 77.65 215.17 191.44 -443.54 845.29c24.36,104.7 56.75,256.39 64.98,355.25 0.93,11.22 1.6,22.4 2.02,33.51l341.17 -590.34 318.8 -244.67 -175.41 669.06 496.66 -145.2c0,0 47.08,-10.23 79.81,34.79 18.27,25.07 86.68,133.39 143.72,224.39 17.6,-167.32 91.74,-453.96 91.74,-453.96 5.64,-16.96 11.7,-35.3 18.22,-55.11l-710.28 -817.11 -271.34 -198 -135.17 -9.1z"/>
    <path class="fil10" d="M5537.2 3332.56c0,0 18.37,-1.51 23.48,66.02 27.31,361.98 289.43,357.04 335.41,137.63l0 -94.22c-154.09,0 -242.35,-126.54 -242.35,-126.54 -16.51,-18.56 -49.02,-7.09 -116.54,17.11z"/>
    <path class="fil10" d="M6255.01 3332.56c0,0 -18.37,-1.51 -23.48,66.02 -27.32,361.98 -289.41,357.04 -335.44,137.63l0 -94.22c154.13,0 242.35,-126.54 242.35,-126.54 16.53,-18.56 49.04,-7.09 116.57,17.11z"/>
    <path class="fil11" d="M5685.27 3318.98l314.6 -124.17 102.23 -40.35 0 -44.59c-60,38.91 -129.26,62.1 -205.94,62.68 -0.96,0 -1.93,0.02 -2.89,0.02 -0.98,0 -1.95,-0.02 -2.93,-0.02 -73.83,-0.72 -143.93,-28.48 -205.96,-73.48l0 120.65c-0.99,13.49 -6.57,69.32 -33.22,93.18 0.92,0.78 1.76,1.63 2.6,2.57 0,0 3.26,4.65 9.57,12.19l21.94 -8.67z"/>
    <path class="fil6" d="M6323.57 2623.17c3.14,0.43 6.18,0.97 9.23,1.63l0.08 0.03 0 -0.01c55.96,12.13 98.16,61.59 98.91,121.28 0.81,69.39 -54.76,126.3 -124.15,127.14 -69.39,0.82 -126.3,-54.74 -127.13,-124.12 -0.52,-40.33 18.07,-76.42 47.32,-99.77 -3.47,37.08 2.11,83.02 49.41,87.95l-0.85 -72.45c-0.34,-29.32 27.09,-42.63 47.18,-41.67z"/>
    <path class="fil6" d="M5464.36 2617.18c-3.1,0.41 -6.19,0.89 -9.22,1.51l-0.1 0.03 0.01 -0.01c-56.11,11.35 -99.01,60.22 -100.57,119.88 -1.79,69.36 53,127.07 122.33,128.85 69.37,1.8 127.08,-52.97 128.87,-122.31 1.05,-40.33 -17,-76.69 -45.94,-100.43 2.95,37.12 -3.26,82.97 -50.64,87.25l1.87 -72.44c0.76,-29.32 -26.49,-42.99 -46.61,-42.33z"/>
    <path class="fil5" d="M5893.15 3252.33c-234.54,0 -430.2,-289.39 -430.2,-517.88l0 -303.53c0,-236.6 193.57,-430.15 430.15,-430.15l0.05 0c236.53,0 430.12,193.55 430.12,430.15l0 297.09c0,250.41 -170.69,524.31 -430.12,524.31z"/>
    <path class="fil6" d="M5446.14 2533.85l0 -74.39c0,-104.31 37.66,-200.24 100,-274.93l647.48 16.09 12.84 69.03 -41.72 30.5c0,0 -247.86,531.49 -669.83,265.74 -17.37,-10.94 -33.53,-21.61 -48.76,-32.06z"/>
    <path class="fil12" d="M6138.07 2823.07c-42.69,0.79 -76.67,36.05 -75.87,78.74 0.76,42.69 36.02,76.66 78.72,75.87 42.69,-0.78 76.68,-36.06 75.86,-78.74 -0.75,-42.69 -36.02,-76.66 -78.71,-75.87z"/>
    <path class="fil12" d="M5644.52 2832.56c-42.7,0.8 -76.68,36.06 -75.9,78.74 0.81,42.7 36.07,76.67 78.74,75.88 42.7,-0.79 76.67,-36.05 75.88,-78.74 -0.78,-42.7 -36.04,-76.67 -78.72,-75.88z"/>
    <path class="fil2" d="M5765.24 2530.23c9.06,4.1 13.09,14.8 9,23.85 -4.13,9.05 -14.83,13.07 -23.87,8.97 -0.15,-0.07 -54.47,-25.78 -106.37,6.84 -8.44,5.31 -19.64,2.76 -24.94,-5.69 -5.3,-8.46 -2.77,-19.64 5.69,-24.95 68.5,-43.08 140.3,-9.12 140.5,-9.02z"/>
    <path class="fil13" d="M5532.3 3186.62c0,0 -218.92,48.38 -254.41,177.67 -35.49,129.28 -108.44,400.81 176.99,691.36 285.43,290.56 213.8,604.32 213.8,604.32 0,0 -13.63,115.96 85.28,109.15 98.92,-6.84 375.15,-167.12 375.15,-167.12 0,0 81.85,-58 47.76,-180.78 -28.46,-102.43 -81.71,-375.04 -321.23,-568.42 -44.17,-35.66 -93.48,-56.41 -152.83,-79.58 -358.13,-139.83 -225.27,-447.31 -225.27,-447.31l54.77 -139.3z"/>
    <path class="fil4" d="M5509.35 4116.51c62.45,76.7 102.35,153.39 127.45,223.96l218.84 -487.65c-46.14,-30.57 -96.63,-57.52 -151.74,-79.15l-194.54 342.84zm22.95 -929.89c0,0 -203.69,45.02 -249.96,164.26l174.64 154.43c-14.59,-98.05 20.55,-179.39 20.55,-179.39l54.77 -139.3 0 0z"/>
    <path class="fil2" d="M6190.04 2551.12c7.66,6.34 8.71,17.72 2.37,25.36 -6.33,7.65 -17.7,8.73 -25.36,2.38 -0.15,-0.09 -45.79,-39.2 -104.43,-21.37 -9.56,2.91 -19.67,-2.5 -22.56,-12.05 -2.91,-9.55 2.5,-19.67 12.04,-22.56 77.44,-23.55 137.78,28.11 137.94,28.24z"/>
    <path class="fil14" d="M5908.04 2789.09c6.83,22.21 18.67,62.4 17.09,69 -2.16,9.22 -49.89,15.75 -61.69,2.99 -7.86,-8.49 4.3,-43.75 14.51,-67.41 13.96,-32.22 20.89,-34.49 30.09,-4.59z"/>
    <path class="fil2" d="M6144.14 2718.91c-0.03,10.04 -4.04,19.56 -11.13,26.63 -7.15,7.06 -16.71,10.98 -26.73,10.94 -10.01,-0.05 -19.54,-4.04 -26.61,-11.15 -7.07,-7.11 -10.98,-16.68 -10.96,-26.72 0.03,-8.33 -6.7,-15.13 -15.05,-15.15 -8.34,-0.04 -15.13,6.71 -15.15,15.05 -0.06,18.06 6.98,35.28 19.7,48.11 12.72,12.81 29.89,20.01 47.96,20.09 18.04,0.07 35.29,-7 48.09,-19.72 6.6,-6.52 11.69,-14.24 15.11,-22.66 1.96,-0.42 5.78,-0.75 9.19,1.87 1.89,1.43 4.62,1.06 6.06,-0.83 1.44,-1.89 1.08,-4.61 -0.83,-6.05 -3.88,-2.96 -8.05,-3.8 -11.54,-3.81l0.07 -0.33c3.68,-0.79 8.33,-0.88 13.18,1.41 2.16,1.02 4.76,0.11 5.78,-2.04 1.02,-2.15 0.09,-4.74 -2.05,-5.76 -5.43,-2.58 -10.76,-3.03 -15.31,-2.52l0.03 -0.09c3.79,-1.53 8.33,-2.45 13.52,-1.8 2.35,0.29 4.52,-1.41 4.81,-3.78 0.28,-2.37 -1.41,-4.52 -3.76,-4.81 -5.33,-0.67 -10.13,-0.08 -14.31,1.16 -1,-7.35 -7.29,-13.04 -14.91,-13.06 -8.34,-0.04 -15.15,6.71 -15.17,15.05z"/>
    <path class="fil2" d="M5642.07 2718.91c0.07,10.04 4.04,19.56 11.16,26.63 7.12,7.06 16.68,10.98 26.7,10.94 10.04,-0.05 19.55,-4.04 26.64,-11.15 7.05,-7.11 10.98,-16.68 10.93,-26.72 -0.04,-8.33 6.71,-15.13 15.06,-15.15 8.34,-0.04 15.13,6.71 15.15,15.05 0.07,18.06 -7,35.28 -19.72,48.11 -12.72,12.81 -29.87,20.01 -47.92,20.09 -18.09,0.07 -35.3,-7 -48.13,-19.72 -6.59,-6.52 -11.69,-14.24 -15.1,-22.66 -1.97,-0.42 -5.79,-0.75 -9.19,1.87 -1.9,1.43 -4.62,1.06 -6.06,-0.83 -1.45,-1.89 -1.07,-4.61 0.83,-6.05 3.87,-2.96 8.06,-3.8 11.54,-3.81l-0.09 -0.33c-3.65,-0.79 -8.32,-0.88 -13.15,1.41 -2.17,1.02 -4.75,0.11 -5.76,-2.04 -1.03,-2.15 -0.11,-4.74 2.03,-5.76 5.44,-2.58 10.75,-3.03 15.31,-2.52l-0.01 -0.09c-3.8,-1.53 -8.35,-2.45 -13.54,-1.8 -2.35,0.29 -4.52,-1.41 -4.8,-3.78 -0.29,-2.37 1.39,-4.52 3.76,-4.81 5.31,-0.67 10.1,-0.08 14.32,1.16 0.98,-7.35 7.26,-13.04 14.89,-13.06 8.34,-0.04 15.14,6.71 15.17,15.05z"/>
    <path class="fil3" d="M6428.72 2555.84l-39.62 98.97c0,0 -65.83,-6.7 -65.83,74.78 0,0 -58.33,-42.08 -35.83,-141.63 0,0 -154.67,-187.32 -122.02,-322.71 0,0 10.42,-32.91 -12.04,-36.94 -22.48,-4.01 -209.53,572.4 -594.85,270.55 0,0 11.56,169.12 -95.58,197.49 0,0 -21.69,-70.7 -66.61,-46.59 0,0 -61,-353.2 35.33,-500.91 96.34,-147.71 211.93,-295.43 417.48,-276.16 205.5,19.28 597.26,199.09 579.57,683.15z"/>
    <path class="fil13" d="M5486.97 2881.89c0,0 85.21,89.29 193.74,43.57 108.57,-45.74 290.44,-133.58 509.31,-25.7 0,0 120.98,70.13 161.06,27.76 0,0 68.56,81.69 50.09,174.16 -18.5,92.48 -49.33,280.51 -95.58,328.28 -46.23,47.78 -530.18,154.12 -778.33,23.11 0,0 -58.56,-30.82 -72.43,-92.48 -13.88,-61.64 -55.5,-258.92 -60.12,-286.66 -4.62,-27.76 35.45,-77.07 61.67,-84.78 0,0 -7.71,-86.31 30.59,-107.26z"/>
    <path class="fil4" d="M5402.54 3041.86c12.35,-23.58 36.22,-47.55 53.84,-52.72 0,0 60.48,67.41 182.22,58.2 0,0 -115.17,43.63 -236.06,-5.48z"/>
    <path class="fil4" d="M6336.47 3373.96c-9.41,24.64 -19.69,44.42 -30.89,55.98 -25.95,26.83 -189.99,72.14 -372.8,83.5 -11.5,-84.33 32.22,-363.76 32.22,-363.76l50.89 -155.37 184.44 214.71 37.82 -18 98.31 182.94z"/>
    <path class="fil6" d="M6212.59 3374.1c0,0 24.98,-165.31 25.57,-183.09 0.63,-17.79 -73.57,-21.44 -85.8,87.67 -12.26,109.11 55.15,91.94 55.15,91.94l5.08 3.47z"/>
    <path class="fil5" d="M5896.16 2988.67c0,0 0,657.14 0,735.6 0,78.48 44.15,128.75 90.71,174.11 46.59,45.37 239.07,327.35 239.07,327.35l197.77 -168.87c0,0 -251.06,-308.43 -263.33,-332.95 -12.26,-24.5 -13.48,-71.09 1.22,-151.99 14.69,-80.93 61.88,-220.31 47.17,-255.87 -14.72,-35.55 -137.32,-221.9 -197.41,-329.78 0,0 -11.04,-7.98 -21.76,-4.61 -10.74,3.38 -19.31,29.12 -19.31,29.12l-29.41 -45.97c0,0 -25.06,-26.98 -44.72,3.06l0 20.81z"/>
    <line class="fil15 str0" x1="5970.3" y1="3010.77" x2="6139.15" y2= "3313.94" />
    <path class="fil15 str0" d="M5896.16 3040.54c0,0 10.68,-11.64 22.32,-1.84 11.63,9.81 172.26,373.94 172.26,373.94"/>
    <path class="fil15 str0" d="M5896.16 3225.06c0,0 4.52,-10.42 22.9,-4.91 18.43,5.53 22.69,49.66 37.41,112.18 14.71,62.54 42.93,181.46 42.93,181.46"/>
    <line class="fil15 str0" x1="5896.16" y1="2967.86" x2="5896.16" y2= "3632.72" />
    <path class="fil15 str0" d="M6208.78 3316.04c-14.72,-35.55 -137.32,-221.9 -197.41,-329.78 0,0 -11.04,-7.98 -21.76,-4.61 -10.74,3.38 -19.31,29.12 -19.31,29.12l-29.41 -45.97c0,0 -25.06,-26.98 -44.72,3.06"/>
    <path class="fil5" d="M6574.77 4811.28c-170.54,-201.22 -579.55,-904.04 -579.55,-904.04l173.69 -156.65 14.59 5.64 506.49 549.74 267.71 282.8c140.03,147.94 -88.65,569.76 -382.92,222.51z"/>
    <line class="fil15 str0" x1="6644.98" y1="4257.11" x2="6867.88" y2= "4493.88" />
    <path class="fil6" d="M5579.73 3374.1c0,0 -24.96,-165.31 -25.58,-183.09 -0.62,-17.79 73.54,-21.44 85.81,87.67 12.26,109.11 -55.17,91.94 -55.17,91.94l-5.07 3.47z"/>
    <path class="fil5" d="M5896.16 2988.67c0,0 0,657.14 0,735.6 0,78.48 -44.13,128.75 -90.72,174.11 -46.59,45.37 -239.07,327.35 -239.07,327.35l-197.77 -168.87c0,0 251.08,-308.43 263.34,-332.95 12.26,-24.5 13.5,-71.09 -1.22,-151.99 -14.7,-80.93 -61.88,-220.31 -47.16,-255.87 14.72,-35.55 137.31,-221.9 197.39,-329.78 0,0 11.05,-7.98 21.78,-4.61 10.69,3.38 19.28,29.12 19.28,29.12l29.44 -45.97c0,0 25.05,-26.98 44.71,3.06l0 20.81z"/>
    <line class="fil15 str0" x1="5822.01" y1="3010.77" x2="5653.17" y2= "3313.94" />
    <path class="fil15 str0" d="M5896.16 3040.54c0,0 -10.67,-11.64 -22.31,-1.84 -11.68,9.81 -172.28,373.94 -172.28,373.94"/>
    <path class="fil15 str0" d="M5896.16 3225.06c0,0 -4.52,-10.42 -22.91,-4.91 -18.4,5.53 -22.68,49.66 -37.42,112.18 -14.68,62.54 -42.89,181.46 -42.89,181.46"/>
    <line class="fil15 str0" x1="5896.16" y1="2967.86" x2="5896.16" y2= "3632.72" />
    <path class="fil15 str0" d="M5583.56 3316.04c14.72,-35.55 137.31,-221.9 197.39,-329.78 0,0 11.05,-7.98 21.78,-4.61 10.69,3.38 19.28,29.12 19.28,29.12l29.44 -45.97c0,0 25.05,-26.98 44.71,3.06"/>
    <path class="fil5" d="M5217.56 4811.28c170.51,-201.22 579.53,-904.04 579.53,-904.04l-173.67 -156.65 -14.6 5.64 -506.49 549.74 -267.7 282.8c-140.03,147.94 88.65,569.76 382.93,222.51z"/>
    <line class="fil15 str0" x1="5147.34" y1="4257.11" x2="4924.44" y2= "4493.88" />
    <path class="fil8" d="M6480.2 3382.82l-215.14 372.61c-2.39,4.16 -7.71,5.58 -11.87,3.19 -4.16,-2.39 -5.55,-7.72 -3.16,-11.87l212.06 -367.33 18.11 3.41z"/>
    <path class="fil8" d="M6411.29 3384.95c6.43,3.72 8.66,11.96 4.92,18.42 -3.72,6.44 -11.96,8.66 -18.41,4.93 -6.43,-3.72 -8.65,-11.97 -4.93,-18.42 3.72,-6.46 11.96,-8.67 18.41,-4.93z"/>
    <path class="fil8" d="M6497.79 3434.89c6.43,3.72 8.65,11.96 4.92,18.4 -3.73,6.46 -11.95,8.67 -18.41,4.95 -6.46,-3.72 -8.66,-11.96 -4.93,-18.42 3.69,-6.44 11.95,-8.66 18.43,-4.93z"/>
    <path class="fil8" d="M6367.78 3460.3c6.46,3.72 8.65,11.95 4.95,18.41 -3.73,6.45 -11.98,8.66 -18.43,4.93 -6.46,-3.72 -8.65,-11.97 -4.94,-18.41 3.74,-6.46 11.97,-8.65 18.42,-4.93z"/>
    <path class="fil8" d="M6454.27 3510.24c6.46,3.71 8.65,11.96 4.96,18.39 -3.74,6.46 -11.98,8.66 -18.44,4.95 -6.44,-3.72 -8.67,-11.97 -4.92,-18.42 3.72,-6.44 11.97,-8.65 18.41,-4.92z"/>
    <path class="fil8" d="M6324.3 3535.65c6.42,3.72 8.64,11.96 4.92,18.42 -3.72,6.44 -11.96,8.64 -18.42,4.93 -6.43,-3.72 -8.65,-11.97 -4.92,-18.41 3.72,-6.44 11.96,-8.67 18.42,-4.93z"/>
    <path class="fil8" d="M6410.78 3585.58c6.44,3.72 8.65,11.96 4.92,18.41 -3.72,6.45 -11.94,8.65 -18.4,4.92 -6.46,-3.7 -8.66,-11.95 -4.93,-18.4 3.69,-6.45 11.96,-8.66 18.41,-4.93z"/>
    <path class="fil8" d="M6280.77 3610.99c6.47,3.71 8.67,11.95 4.96,18.42 -3.74,6.44 -11.98,8.65 -18.41,4.93 -6.46,-3.73 -8.64,-11.98 -4.94,-18.42 3.72,-6.45 11.97,-8.66 18.4,-4.93z"/>
    <path class="fil8" d="M6367.27 3660.92c6.46,3.72 8.65,11.97 4.96,18.42 -3.75,6.44 -11.99,8.65 -18.43,4.93 -6.46,-3.72 -8.68,-11.97 -4.94,-18.42 3.72,-6.44 11.97,-8.65 18.42,-4.93z"/>
    <path class="fil8" d="M6237.3 3686.34c6.42,3.72 8.64,11.96 4.92,18.41 -3.72,6.44 -11.95,8.65 -18.42,4.93 -6.43,-3.74 -8.65,-11.97 -4.93,-18.41 3.73,-6.46 11.97,-8.66 18.43,-4.93z"/>
    <path class="fil8" d="M6323.78 3736.27c6.43,3.72 8.64,11.97 4.92,18.41 -3.72,6.45 -11.94,8.66 -18.4,4.93 -6.47,-3.72 -8.67,-11.97 -4.93,-18.41 3.74,-6.44 11.96,-8.65 18.42,-4.93z"/>
    <path class="fil16" d="M6440.43 1974.5c-16.98,-29.36 -33.26,-54.35 -48.48,-75.15 -44.29,-12.04 -100.13,-12.01 -167.93,17.46 -173.6,75.46 -444.64,309.27 -675.12,-75.11 -57.65,49.13 -119.58,105.03 -174.94,158 62.72,108.98 169.54,266.11 289.37,320.23 190.33,85.95 339.7,-92.09 433.83,-192.36 76.83,-81.85 206.84,-210 343.27,-153.07z"/>
    <path class="fil6" d="M6183.52 3756.28c-12.69,-16.69 -21.11,-28.35 -23.14,-32.37 -8.76,-17.53 -11.89,-46.38 -7.59,-91 0.39,-4.13 0.87,-8.39 1.38,-12.79l-6.88 18.96 -50.8 139.54 -13.55 37.24 -6.65 18.3c0,0 12.11,-8.06 30.06,-16.99 5.19,-2.58 10.87,-5.22 16.88,-7.78 29.06,-12.34 65.96,-22.28 93.56,-10.21 6.72,2.93 12.88,7.17 18.22,12.98l-51.48 -55.88z"/>
    <path class="fil6" d="M5608.79 3756.28c12.71,-16.69 21.13,-28.35 23.15,-32.37 8.76,-17.53 11.91,-46.38 7.56,-91 -0.39,-4.13 -0.86,-8.39 -1.35,-12.79l6.88 18.96 50.8 139.54 13.55 37.24 6.67 18.3c0,0 -12.13,-8.06 -30.08,-16.99 -5.2,-2.58 -10.84,-5.22 -16.87,-7.78 -29.07,-12.34 -65.99,-22.28 -93.58,-10.21 -6.7,2.93 -12.86,7.17 -18.22,12.98l51.48 -55.88z"/>
    <path class="fil17" d="M4566.63 2083.63l445.77 0c53.01,0 96.38,-43.37 96.38,-96.38l0 0c0,-53.01 -43.37,-96.38 -96.38,-96.38l9.63 0c-24.87,0 -45.18,-20.33 -45.18,-45.18l0 0c0,-24.87 20.31,-45.19 45.18,-45.19l234.18 0c53.02,0 96.39,-43.37 96.39,-96.38l0 0c0,-53.01 -43.37,-96.39 -96.39,-96.39l-445.76 0c-53.01,0 -96.38,43.38 -96.38,96.39l0 0c0,53.01 43.37,96.38 96.38,96.38l0.72 0c24.86,0 45.19,20.32 45.19,45.19l0 0c0,24.85 -20.32,45.18 -45.19,45.18l-244.54 0c-53.01,0 -96.38,43.37 -96.38,96.38l0 0c0,53.01 43.37,96.38 96.38,96.38z"/>
    <path class="fil0" d="M7827.28 3910.86l-445.77 0c-53.01,0 -96.38,-43.37 -96.38,-96.38l0 0c0,-53.01 43.37,-96.38 96.38,-96.38l-9.63 0c24.87,0 45.18,-20.33 45.18,-45.19l0 0c0,-24.86 -20.31,-45.18 -45.18,-45.18l-234.18 0c-53.02,0 -96.39,-43.37 -96.39,-96.38l0 0c0,-53.01 43.37,-96.39 96.39,-96.39l445.76 0c53.01,0 96.38,43.38 96.38,96.39l0 0c0,53.01 -43.37,96.38 -96.38,96.38l-0.72 0c-24.86,0 -45.19,20.32 -45.19,45.18l0 0c0,24.85 20.32,45.19 45.19,45.19l244.54 0c53.01,0 96.38,43.37 96.38,96.38l0 0c0,53.01 -43.37,96.38 -96.38,96.38z"/>
    <g>
     <path class="fil18" d="M8569.7 2730.5c0,-409.27 -331.75,-741.02 -741.06,-741.02 -409.26,0 -740.98,331.75 -740.98,741.02 0,409.27 331.72,741.03 740.98,741.03 409.3,0 741.06,-331.76 741.06,-741.03l0 0z"/>
     <path class="fil19" d="M8195.14 2790.41l0 -270.84 343.85 0c19.62,66.96 30.71,137.44 30.71,210.93 0,20.14 -1.02,40.28 -2.51,59.91l-372.05 0z"/>
     <path class="fil20" d="M7704.35 2946.97c-25.19,8.06 -51.86,-6.03 -59.93,-31.21 -7.55,-25.18 6.06,-51.85 31.22,-59.91l188.76 -59.9 0 0c0,0 18.11,-6.53 14.09,-19.63 -2.51,-9.07 -11.59,-10.08 -17.1,-9.56l-290.46 37.25c-26.19,3.03 -50.36,-15.1 -53.39,-41.27 -3.5,-26.19 15.12,-49.84 41.28,-53.36l275.38 -35.24 0 0c0,0 18.14,-1.52 18.14,-16.63 0,-10.06 -9.58,-12.59 -15.61,-13.08l-5.02 0 -313.64 0c-26.19,0 -47.81,-21.15 -47.81,-47.83 0,-26.17 21.63,-47.83 47.81,-47.83l318.14 0 0 0c0.52,0 15.63,-0.99 17.15,-9.57 1,-8.04 -11.11,-10.56 -12.61,-10.56l-277.38 -42.81c-25.66,-4.01 -43.8,-28.68 -39.79,-54.35 4.05,-26.17 28.72,-43.8 54.39,-39.77l337.28 51.86c31.22,5.02 87.11,3 62.93,-44.31l-113.78 -114.78c-22.16,-22.16 -22.16,-58.39 0.5,-81.06 22.17,-22.16 58.41,-22.16 80.56,0.51l114.26 114.78c27.69,28.19 91.63,52.35 135.94,69.46 44.78,17.13 106.2,52.36 106.2,111.26 0,58.9 0,138.96 0,234.09 0,95.15 -134.4,95.15 -214.45,110.25 -58.39,11.07 -126.36,21.65 -182.73,39.28l-200.34 63.92z"/>
     <path class="fil13" d="M7517.55 2903.68c0,-122.32 99.17,-220.99 221,-220.99 122.34,0 221.49,98.67 221.49,220.99 0,121.83 -99.15,221 -221.49,221 -121.83,0 -221,-99.17 -221,-221l0 0z"/>
     <path class="fil13" d="M7392.7 2859.88c0,-66.45 53.37,-120.33 119.83,-120.33 65.94,0 119.8,53.88 119.8,120.33 0,65.94 -53.86,119.81 -119.8,119.81 -66.46,0 -119.83,-53.87 -119.83,-119.81l0 0z"/>
     <path class="fil13" d="M7455.13 2637.39c0,-91.13 74.02,-165.13 165.12,-165.13 91.12,0 165.12,74 165.12,165.13 0,91.1 -74,165.1 -165.12,165.1 -91.1,0 -165.12,-74 -165.12,-165.1l0 0z"/>
     <path class="fil13" d="M7654.98 2667.57c0,-171.16 138.45,-310.07 309.59,-310.07 171.67,0 310.09,138.91 310.09,310.07 0,171.17 -138.42,310.11 -310.09,310.11 -171.15,0 -309.59,-138.94 -309.59,-310.11l0 0z"/>
     <path class="fil13" d="M7646.93 2483.83c0,-31.2 25.66,-56.88 57.41,-56.88 31.19,0 56.87,25.67 56.87,56.88 0,31.72 -25.68,57.39 -56.87,57.39 -31.75,0 -57.41,-25.66 -57.41,-57.39l0 0z"/>
     <path class="fil21" d="M7433.97 2477.29c6.57,14.09 10.62,29.7 10.62,46.31 0,59.41 -48.36,107.74 -108.25,107.74 -59.41,0 -107.74,-48.33 -107.74,-107.74 0,-16.6 3.51,-32.21 10.56,-46.31l0 0 76.52 -180.22c2.51,-9.07 10.57,-16.13 20.65,-16.13 10.06,0 18.62,7.05 20.62,16.13l77.01 180.22 0 0z"/>
     <path class="fil13" d="M7203.43 2831.69c0,-33.74 27.2,-61.41 60.93,-61.41 34.23,0 61.41,27.67 61.41,61.41 0,33.72 -27.18,61.4 -61.41,61.4 -33.74,0 -60.93,-27.67 -60.93,-61.4l0 0z"/>
     <path class="fil13" d="M7838.22 3108.56c0,-91.11 73.5,-165.11 165.14,-165.11 91.11,0 165.11,74 165.11,165.11 0,91.63 -74,165.12 -165.11,165.12 -91.63,0 -165.14,-73.49 -165.14,-165.12l0 0z"/>
     <path class="fil13" d="M7427.43 3048.66c0,-16.11 13.12,-29.19 29.21,-29.19 16.13,0 29.22,13.08 29.22,29.19 0,16.62 -13.1,29.7 -29.22,29.7 -16.09,0 -29.21,-13.09 -29.21,-29.7l0 0z"/>
     <path class="fil22" d="M7704.35 3213.28c-25.19,8.06 -51.86,-6.04 -59.93,-31.21 -7.55,-24.67 6.06,-51.84 31.22,-59.41l188.76 -60.41 0 0c0,0 18.11,-6.04 14.09,-19.63 -2.51,-8.57 -11.59,-9.57 -17.1,-9.57l-290.46 37.26c-26.19,3.52 -50.36,-15.11 -53.39,-41.29 -3.5,-26.19 15.12,-49.84 41.28,-53.37l275.38 -35.24 0 0c0,0 18.14,-1.51 18.14,-16.61 0,-10.08 -9.58,-12.61 -15.61,-13.1l-5.02 0 -313.64 0c-26.19,0 -47.81,-21.15 -47.81,-47.82 0,-26.19 21.63,-47.83 47.81,-47.83l318.14 0 0 0c0.52,0 15.63,-1.01 17.15,-9.57 1,-8.06 -11.11,-10.08 -12.61,-10.57l-277.38 -42.78c-25.66,-4.04 -43.8,-28.2 -39.79,-54.37 4.05,-26.19 28.72,-43.8 54.39,-39.76l337.28 51.85c31.22,5.04 87.11,3.02 62.93,-44.31l-113.78 -114.78c-22.16,-22.14 -22.16,-58.39 0.5,-80.54 22.17,-22.65 58.41,-22.14 80.56,0l114.26 114.79c27.69,28.17 91.63,52.36 135.94,69.46 44.78,17.11 106.2,52.87 106.2,111.26 0,58.9 0,138.95 0,234.09 0,95.13 -134.4,95.13 -214.45,110.23 -58.39,11.09 -126.36,21.65 -182.73,39.29l-200.34 63.92z"/>
     <path class="fil13" d="M8197.68 3156.89c0,-16.11 13.07,-29.2 29.19,-29.2 16.11,0 29.18,13.09 29.18,29.2 0,16.11 -13.07,29.21 -29.18,29.21 -16.12,0 -29.19,-13.1 -29.19,-29.21l0 0z"/>
     <path class="fil13" d="M7406.31 2514.04c2.5,5.53 4.03,11.58 4.03,18.11 0,23.67 -19.14,42.31 -42.29,42.31 -23.16,0 -42.28,-18.64 -42.28,-42.31 0,-6.52 1.49,-12.57 4.03,-18.11l0 0 30.19 -69.97c1.01,-4.03 4.03,-6.56 8.06,-6.56 4.01,0 7.06,2.52 8.04,6.56l30.22 69.97 0 0z"/>
     <path class="fil23" d="M8195.14 3025l0 -293.98 374.56 0c0,104.69 -22.13,203.87 -60.91,293.98l-313.65 0z"/>
     <path class="fil13" d="M7661.52 2314.69c0,-33.74 27.21,-60.91 61.44,-60.91 33.72,0 60.9,27.18 60.9,60.91 0,34.23 -27.18,61.43 -60.9,61.43 -34.24,0 -61.44,-27.19 -61.44,-61.43l0 0z"/>
    </g>
    <path class="fil17" d="M3742.13 3566.35c580.86,0 1054.26,-473.44 1054.26,-1053.54 0,-580.79 -473.4,-1054.14 -1054.26,-1054.14 -580.76,0 -1054.13,473.35 -1054.13,1054.14 0,580.1 473.37,1053.54 1054.13,1053.54l0 0z"/>
    <path class="fil3" d="M3282.39 2402.52l-77.33 28.68c0,0 10.72,299.33 -68.8,506.35 -78.74,206.26 -15.73,380.25 111.71,338.74 0,0 7.19,125.33 112.49,154.7 105.98,29.36 237.04,51.57 237.04,51.57l354.49 19.28c0,0 54.46,15.06 120.32,7.89 50.11,-17.16 98.11,-37.91 143.94,-61.58 50.88,-45.83 90.25,-122.46 98.15,-247.78 0,0 114.59,-5.01 116.7,-142.55 1.43,-137.45 -156.14,-361.63 -156.14,-645.99 0,-284.99 -992.58,-9.31 -992.58,-9.31l0 0z"/>
    <path class="fil3" d="M3388.37 2042.3c0,0 69.5,-181.88 147.57,-229.14 78.02,-48.04 404.63,-91.69 510.61,-62.33 106.69,28.65 309.34,366.71 320.11,603 10.76,236.38 -123.92,340.17 -248.49,362.39 -124.62,22.21 -729.8,-673.91 -729.8,-673.91l0 0z"/>
    <path class="fil3" d="M3288.83 1989.3c0,0 -162.56,137.54 -176.87,185.49 -14.33,47.29 12.18,262.87 94.54,358.13 83.06,95.2 287.15,69.46 291.48,29.34 3.57,-40.1 2.13,-386.74 -19.37,-414.63 -22.17,-27.95 -189.77,-158.32 -189.77,-158.32l0 0z"/>
    <path class="fil3" d="M3346.84 2154.77c0,0 -109.58,-126.08 -122.48,-191.2 -12.88,-65.91 174.78,-262.87 464.79,-334.44 229.21,-57.33 306.55,113.88 435.49,305.06 17.84,27.22 22.21,48.72 22.21,48.72l-800 171.86z"/>
    <path class="fil24" d="M3760.81 2597.35l0 0c96.67,0 175.48,78.76 175.48,174.7l0 318.74c0,0.71 2.1,19.37 32.2,28.63 30.06,9.31 25.06,31.54 25.06,31.54l-73.75 71.57c0,0 38.69,26.51 -49.45,26.51l-6.42 0c-28.67,20.78 -64.43,33.66 -103.11,33.66l0 0c-41.58,0 -79.54,-14.97 -109.62,-39.37 -14.31,-1.43 -25.06,-2.89 -30.04,-5.03 -23.65,-10.72 -34.41,-34.34 -36.57,-46.54 -2.12,-11.47 -27.9,-57.32 -27.9,-57.32l29.36 -24.29 0 -338.11c0,-95.94 78.78,-174.7 174.78,-174.7l0 0z"/>
    <path class="fil25" d="M3966.34 3120.88c0,0 -73.78,105.96 -202.68,105.96 -129.64,0 -203.4,-105.96 -203.4,-105.96 -13.61,-15.77 -40.8,-5.74 -97.4,14.34 -56.55,20 -174.02,37.91 -300.07,63.7 -79.5,15.82 -132.5,52.3 -160.41,75.96 189.09,181.19 445.47,291.47 727.64,291.47 296.46,0 564.31,-122.48 756.27,-319.4 -30.11,-18.71 -70.16,-37.28 -122.48,-48.04 -126,-25.78 -242.74,-43.7 -299.32,-63.7 -56.6,-20.07 -83.81,-30.11 -98.13,-14.34l0 0z"/>
    <path class="fil13" d="M3062.51 3234.03c0,0 -25.76,12.93 -65.15,35.8 52.29,50.86 109.55,96 171.89,135.36 -30.09,-97.43 -68.04,-171.89 -106.73,-171.16l0 0z"/>
    <path class="fil13" d="M3462.85 3135.22c0,0 15.04,-1.44 19.32,55.12 22.94,303.67 242.8,299.39 281.48,115.33 37.96,184.06 257.84,188.33 280.74,-115.33 4.28,-56.56 20.07,-55.12 20.07,-55.12 -56.6,-20.07 -83.81,-30.11 -98.13,-14.34 0,0 -73.78,105.96 -202.68,105.96 -129.64,0 -203.4,-105.96 -203.4,-105.96 -13.61,-15.77 -40.8,-5.74 -97.4,14.34l0 0z"/>
    <path class="fil13" d="M4464.06 3234.03c0,0 8.6,4.28 22.91,12.13 -33.68,34.43 -69.43,67.32 -108.12,96.7 25.76,-65.13 55.85,-109.56 85.2,-108.82l0 0z"/>
    <path class="fil26" d="M3586.74 3123.7l263.57 -103.81 85.98 -33.63 0 -37.94c-50.9,32.89 -108.89,52.22 -172.64,53 -0.75,0 -2.16,0 -2.84,0 -0.77,0 -1.45,0 -2.18,0 -62.26,-0.78 -121.03,-24.4 -172.59,-61.63l0 101c-0.7,11.43 -5.71,57.96 -27.92,78.06 0.7,0.69 1.43,1.39 2.13,2.14 0,0 2.87,3.59 7.9,9.96l18.59 -7.15z"/>
    <path class="fil19" d="M4142.48 2443.38c2.91,0 5.78,0.72 8.64,1.43l0 0c49.39,10.71 86.66,54.46 87.35,107.46 0.73,61.54 -48.72,111.72 -109.56,112.4 -61.6,0.73 -112.44,-47.98 -113.15,-109.58 0,-35.8 16.43,-68.02 42.24,-88.8 -3.6,32.98 1.43,73.78 43.67,78.06l-0.69 -64.44c-0.75,-25.81 23.65,-37.96 41.49,-36.52l0 0z"/>
    <path class="fil19" d="M3380.52 2437.66c-2.89,0.69 -5,0.69 -7.89,1.46l0 0c-50.12,9.96 -88.09,53.66 -89.51,106.67 -1.46,60.87 47.25,112.44 108.87,113.87 61.58,1.43 112.39,-46.56 113.85,-108.17 1.41,-35.8 -15.06,-68.02 -40.8,-89.51 2.87,32.96 -2.87,73.78 -44.42,77.33l1.41 -63.72c0.73,-26.52 -23.6,-38.64 -41.51,-37.94l0 0z"/>
    <path class="fil23" d="M3760.81 3001.31c-207.71,0 -381.02,-257.13 -381.02,-459.83l0 -268.58c0,-209.82 171.18,-381.7 381.02,-381.7l0 0c209.78,0 381.67,171.88 381.67,381.7l0 263.57c0,222.04 -151.09,464.84 -381.67,464.84l0 0z"/>
    <path class="fil19" d="M3379.79 2338.8l0 -65.9c0,-93.06 32.93,-177.6 88.11,-244.21l574.37 14.36 11.44 61.56 -37.25 26.49c0,0 -219.9,471.28 -593.72,235.66 -15.77,-9.31 -30.08,-18.66 -42.96,-27.95l0 0z"/>
    <path class="fil19" d="M3978.51 2576.57c-37.28,0.75 -67.29,31.52 -66.63,68.75 0.77,37.25 31.56,66.59 68.77,65.93 37.25,-0.75 66.61,-31.57 65.9,-68.82 -0.73,-36.48 -30.79,-66.54 -68.04,-65.86l0 0z"/>
    <path class="fil19" d="M3540.23 2585.16c-37.24,0.77 -66.61,31.54 -65.91,68.79 0.73,37.23 31.52,66.57 68.78,65.86 37.23,-0.76 66.58,-31.52 65.88,-68.73 -0.73,-37.28 -31.52,-66.61 -68.75,-65.93l0 0z"/>
    <path class="fil27" d="M3647.67 2349.52c7.83,3.59 11.43,12.95 7.83,20.78 -3.57,8.6 -12.88,12.2 -21.48,7.94 0,0 -47.98,-22.26 -93.78,6.42 -7.88,5.01 -17.93,2.12 -22.19,-5.05 -5.05,-7.85 -2.89,-17.14 4.99,-22.17 60.88,-37.96 124.64,-7.92 124.64,-7.92l0 0z"/>
    <path class="fil27" d="M4025.05 2368.19c6.46,5.71 7.92,15.77 2.17,22.18 -5.72,7.15 -15.73,7.91 -22.94,2.17 0,0 -40.08,-34.36 -92.39,-18.64 -8.56,2.89 -17.16,-2.14 -20.03,-10.74 -2.16,-8.58 2.14,-17.18 10.72,-20.02 68.79,-20.78 122.48,25.06 122.48,25.06l0 0z"/>
    <path class="fil28" d="M3771.56 2583.06c7.17,20.78 19.3,57.26 17.84,62.97 -1.39,7.92 -43.65,10.06 -54.39,-2.14 -7.88,-8.61 1.39,-38.67 9.31,-58.73 11.44,-27.18 17.18,-29.34 27.24,-2.1l0 0z"/>
    <path class="fil3" d="M4236.35 2383.2l-35.84 88.12c0,0 -58.03,-5.72 -58.03,65.88 0,0 -51.57,-37.28 -31.48,-125.37 0,0 -137.52,-166.13 -108.84,-286.44 0,0 9.33,-28.63 -10.02,-32.2 -20.09,-3.59 -186.24,507.76 -527.85,239.91 0,0 10.03,149.65 -84.5,174.76 0,0 -19.32,-62.35 -59.44,-40.81 0,0 -54.43,-313.68 31.52,-444.76 85.23,-131.08 187.64,-262.12 370.24,-244.96 181.97,17.22 529.22,176.94 514.24,605.89l0 0z"/>
    <path class="fil16" d="M4095.96 1779.48c-22.91,5.76 -46.56,15.06 -71.59,29.38 -166.89,93.83 -415.39,357.36 -686.84,-5.71l-0.71 0.68c-30.79,32.23 -62.33,66.59 -93.78,101.69 -15.06,23.66 -21.54,43.69 -18.68,58.05 3.62,17.18 13.63,37.94 25.81,60.17 -7.13,6.37 -15.04,13.61 -23.62,20.78 74.46,92.37 174.02,194.06 274.99,227.74 200.56,66.56 332.3,-127.49 416.82,-238.54 53,-69.48 135.36,-170.43 236.31,-192.63 -20.78,-25.06 -40.12,-45.83 -58.72,-61.6l0 0z"/>
    <path class="fil27" d="M3532.35 2538.64c-10.06,0 -18.63,-7.92 -18.63,-18.64 0,-3.6 1.43,-6.42 2.86,-9.31l-5.71 -2.84c-3.62,-2.21 -5.03,-7.15 -2.89,-11.47 2.16,-4.26 7.17,-5.72 11.47,-2.82l12.15 6.37c-1.41,-2.86 -1.41,-5.71 0,-8.58 2.89,-3.59 7.9,-4.28 11.49,-2.16l18.61 12.2 46.54 0c10.72,0 18.63,8.6 18.63,18.61 0,10.72 -7.91,18.64 -18.63,18.64l-75.9 0z"/>
    <path class="fil27" d="M3989.28 2538.64c10.7,0 18.59,-7.92 18.59,-18.64 0,-3.6 -0.73,-6.42 -2.87,-9.31l5.74 -2.84c4.3,-2.21 5.73,-7.15 3.59,-11.47 -2.85,-4.26 -7.88,-5.72 -11.5,-2.82l-12.15 6.37c1.45,-2.86 1.45,-5.71 -0.73,-8.58 -2.11,-3.59 -7.89,-4.28 -11.45,-2.16l-17.91 12.2 -47.26 0c-10.02,0 -18.62,8.6 -18.62,18.61 0,10.72 8.6,18.64 18.62,18.64l75.94 0z"/>
    <path class="fil29" d="M3721.4 2727.66l78.77 0c27.24,0 48.72,22.23 48.72,49.44l0 0c0,26.5 -21.48,48.72 -48.72,48.72l-78.77 0c-26.46,0 -48.68,-22.23 -48.68,-48.72l0 0c0,-27.22 22.22,-49.44 48.68,-49.44l0 0z"/>
    <path class="fil30" d="M3838.85 2807.15c-9.33,11.52 -22.91,18.68 -38.69,18.68l-78.77 0c-15.02,0 -29.35,-7.17 -37.96,-18.68 8.61,-11.43 22.94,-18.57 37.96,-18.57l78.77 0c15.77,0 29.36,7.15 38.69,18.57l0 0z"/>
    <path class="fil13" d="M3721.4 2727.66l78.77 0c8.6,0 16.5,2.2 22.91,6.46l0 11.45c0,10.04 -7.87,17.93 -17.86,17.93l-88.84 0c-9.99,0 -17.89,-7.9 -17.89,-17.93l0 -11.45c7.17,-4.25 15.04,-6.46 22.91,-6.46l0 0z"/>
    <path class="fil13" d="M3814.48 2898.13l0 3.57c0,6.46 5.74,11.47 11.52,11.47l0 0c6.42,0 12.13,-5.01 12.13,-11.47l0 -3.57c0,-6.44 -5.71,-12.15 -12.13,-12.15l0 0c-5.78,0 -11.52,5.71 -11.52,12.15l0 0zm-42.21 -72.3l9.33 0 0 20.76c0,4.98 4.26,8.58 9.26,8.58l0 0c5.05,0 9.31,-3.6 9.31,-8.58l0 -7.9c0,-3.6 3.59,-7.15 7.17,-7.15l0 0c4.28,0 7.15,3.55 7.15,7.15l0 27.22c0,6.46 5.74,11.47 11.52,11.47l0 0c6.42,0 12.13,-5.01 12.13,-11.47l0 -51.55c0,-6.44 -5.71,-11.47 -12.13,-11.47l-53.73 0c-6.48,0 -11.45,5.03 -11.45,11.47l0 0c0,6.44 4.96,11.47 11.45,11.47l0 0z"/>
    <path class="fil31" d="M4181.91 2650.35c-25.07,93.1 -81.67,200.53 -141.82,206.93 -3.62,0 -7.12,-2.85 -7.89,-6.4 0,-4.3 2.87,-7.89 6.49,-7.89 50.81,-5.71 101.68,-98.81 126.75,-184.77 5.72,-2.13 11.45,-5.02 16.48,-7.87l0 0zm-104.54 20.8c0,3.5 -2.87,7.15 -7.17,6.42 -3.62,0 -7.22,-2.92 -7.22,-7.19 0,0 2.19,-136.06 83.09,-160.39 -1.41,4.26 -2.13,10.02 -2.84,15.77 -64.44,27.93 -65.86,144.62 -65.86,145.4l0 0z"/>
    <path class="fil31" d="M3344.68 2650.35c25.07,93.1 82.38,200.53 141.82,206.93 4.28,0 7.89,-2.85 7.89,-6.4 0.69,-4.3 -2.19,-7.89 -6.46,-7.89 -50.84,-5.71 -100.98,-98.81 -126.05,-184.77 -6.46,-2.13 -12.18,-5.02 -17.2,-7.87l0 0zm104.57 20.8c0,3.5 3.57,7.15 7.19,6.42 4.3,0 7.15,-2.92 7.15,-7.19 0,0 -2.16,-136.06 -83.06,-160.39 1.41,4.26 2.85,10.02 3.59,15.77 63.72,27.93 65.13,144.62 65.13,145.4l0 0z"/>
    <path class="fil13" d="M3763.66 2606.66l318.69 30.81c0,0 17.89,3.57 19.33,24.33 2.18,21.48 -40.13,207.69 -62.26,242.09 -22.94,34.34 -166.88,100.26 -275.76,100.26 -109.59,0 -253.51,-65.93 -275.72,-100.26 -22.9,-34.41 -64.47,-220.61 -63.02,-242.09 1.41,-20.75 19.33,-24.33 19.33,-24.33l319.41 -30.81z"/>
   </g>
   <text x="4392.98" y="6409.98"  class="fil32 fnt0">#LindungiDiri</text>
   <text x="4392.98" y="6786.93"  class="fil32 fnt0">#LindungiSesama</text>
   <g>
    <path class="fil33" d="M5577.03 6968.24c76.28,0 138.12,61.84 138.12,138.12 0,76.28 -61.84,138.12 -138.12,138.12 -76.28,0 -138.11,-61.84 -138.11,-138.12 0,-76.28 61.83,-138.12 138.11,-138.12zm87.57 225.71c-48.3,48.3 -126.89,48.3 -175.19,0 -48.3,-48.3 -48.3,-126.89 0,-175.19 48.3,-48.3 126.89,-48.3 175.19,0 23.4,23.4 36.28,54.51 36.28,87.59 0,2.63 -2.13,4.76 -4.76,4.76 -2.63,0 -4.76,-2.13 -4.76,-4.76 0,-30.54 -11.89,-59.26 -33.49,-80.86 -44.59,-44.59 -117.13,-44.59 -161.72,0 -44.59,44.59 -44.59,117.13 0,161.72 44.58,44.58 117.13,44.58 161.72,0 15.65,-15.66 26.26,-35.1 30.89,-56.54l-20.1 0c-4.26,16.13 -12.72,30.83 -24.61,42.72 -36.97,36.97 -97.12,36.97 -134.09,0 -36.97,-36.97 -36.97,-97.12 0,-134.09 36.97,-36.96 97.12,-36.96 134.09,0 17.91,17.91 27.77,41.72 27.77,67.04 0,1.26 -0.5,2.48 -1.39,3.37 -0.89,0.89 -2.11,1.39 -3.37,1.39l-29.06 0c-2.63,0 -4.76,-2.13 -4.76,-4.76 0,-15.01 -5.85,-29.13 -16.48,-39.76 -21.92,-21.92 -57.59,-21.92 -79.51,0 -21.93,21.92 -21.92,57.59 -0,79.51 21.92,21.92 57.59,21.92 79.51,-0 4.57,-4.56 8.24,-9.74 10.96,-15.43l-23.06 0c-6.74,7.66 -16.62,12.49 -27.63,12.49 -20.33,0 -36.81,-16.48 -36.81,-36.81 0,-20.33 16.48,-36.81 36.81,-36.81 20.33,0 36.81,16.48 36.81,36.81 0,5.26 -1.1,10.26 -3.09,14.79l24.03 0c1.53,0 2.97,0.74 3.87,1.99 0.89,1.24 1.13,2.84 0.65,4.3 -3.24,9.63 -8.55,18.18 -15.8,25.42 -25.64,25.64 -67.35,25.64 -92.99,0 -25.64,-25.63 -25.64,-67.35 0,-92.99 25.64,-25.63 67.35,-25.63 92.99,0 11.29,11.3 17.97,25.97 19.09,41.73l19.57 0c-1.15,-20.99 -9.87,-40.56 -24.85,-55.54 -33.25,-33.25 -87.36,-33.25 -120.61,0 -33.26,33.25 -33.26,87.36 0,120.61 33.25,33.25 87.36,33.25 120.61,0 11.52,-11.52 19.45,-25.97 22.94,-41.78 0.48,-2.19 2.42,-3.74 4.65,-3.74l29.61 0c1.4,-0 2.73,0.61 3.63,1.68 0.91,1.07 1.3,2.48 1.07,3.86 -4.24,25.6 -16.21,48.86 -34.62,67.26z"/>
    <g>
     <text x="5754.67" y="7178"  class="fil16 fnt1">TANGGAP COVID-19</text>
     <text x="5753.17" y="7116.13"  class="fil16 fnt2">KUTAI TIMUR</text>
    </g>
    <circle class="fil17" cx="5577.03" cy="7106.36" r="28.11"/>
   </g>
  </g>
 </g>
</svg>
